------------------------------------------GIT COMMANDS------------------------------------------
1. git init
2. git clone [https://github.com/URLREPO-HERE]
3. ls -a
4. git status/git checkout 
 	[make changes in the file which we want to update]
5. git add .
6. git commit {git commit -m ""}
7. git log
8. git push origin master

hello there pranay here !!!

want the new change
 today commit changes 8 may 2024
